…
## Genes that were present in analysis 1, but not in 2.

``` r
set1 <- jgi %>% filter(goAcc %in% first) %>% 
  select(goAcc,goName) %>%
  distinct() %>% 
  arrange(goAcc) 

set1
```

    ## # A tibble: 826 x 2
    ##    goAcc      goName                                               
    ##    <chr>      <chr>                                                
    ##  1 GO:0000059 protein import into nucleus, docking                 
    ##  2 GO:0000104 succinate dehydrogenase activity                     
    ##  3 GO:0000119 mediator complex                                     
    ##  4 GO:0000140 acylglycerone-phosphate reductase activity           
    ##  5 GO:0000156 two-component response regulator activity            
    ##  6 GO:0000214 tRNA-intron endonuclease complex                     
    ##  7 GO:0000221 vacuolar proton-transporting V-type ATPase, V1 domain
    ##  8 GO:0000247 C-8 sterol isomerase activity                        
    ##  9 GO:0000253 3-keto sterol reductase activity                     
    ## 10 GO:0000254 C-4 methylsterol oxidase activity                    
    ## # ... with 816 more rows

## Genes that were present in analysis 2, but not in 1.

``` r
set2 <- sans %>% filter(goAcc %in% second) %>% 
  select(goAcc,desc) %>%
  distinct() %>% 
  arrange(goAcc)

set2
```

    ## # A tibble: 5,904 x 2
    ##    goAcc      desc                               
    ##    <chr>      <chr>                              
    ##  1 GO:0000001 mitochondrion inheritance          
    ##  2 GO:0000002 mitochondrial genome maintenance   
    ##  3 GO:0000011 vacuole inheritance                
    ##  4 GO:0000018 regulation of DNA recombination    
    ##  5 GO:0000019 regulation of mitotic recombination
    ##  6 GO:0000022 mitotic spindle elongation         
    ##  7 GO:0000023 maltose metabolic process          
    ##  8 GO:0000027 ribosomal large subunit assembly   
    ##  9 GO:0000028 ribosomal small subunit assembly   
    ## 10 GO:0000035 acyl binding                       
    ## # ... with 5,894 more rows

## Genes that were present in both analyses.

``` r
set_both <- sans %>% filter(goAcc %in% both) %>% 
  select(goAcc,desc) %>%
  distinct() %>% 
  arrange(goAcc)

set_both
```

    ## # A tibble: 1,330 x 2
    ##    goAcc      desc                                  
    ##    <chr>      <chr>                                 
    ##  1 GO:0000009 alpha-1,6-mannosyltransferase activity
    ##  2 GO:0000015 phosphopyruvate hydratase complex     
    ##  3 GO:0000026 alpha-1,2-mannosyltransferase activity
    ##  4 GO:0000030 mannosyltransferase activity          
    ##  5 GO:0000033 alpha-1,3-mannosyltransferase activity
    ##  6 GO:0000036 acyl carrier activity                 
    ##  7 GO:0000049 tRNA binding                          
    ##  8 GO:0000062 fatty-acyl-CoA binding                
    ##  9 GO:0000103 sulfate assimilation                  
    ## 10 GO:0000105 histidine biosynthetic process        
    ## # ... with 1,320 more rows
…
